{
"keywords" :	
[
"SELECT",
"FROM",
"SAMPLE",
"ARRAY JOIN",
"JOIN",
"WHERE",
"PREPWHERE",
"GROUP BY",
"WITH TOTALS",
"HAVING",
"ORDER BY",
"DISTINCT",
"LIMIT",
"UNION ALL",
"FORMAT",
"IN"
],
"functions":
[
"toYear",
"toMonth",
"toDayOfMonth",
"toDayOfWeek",
"toHour",
"toMinute",
"toSecond",
"toMonday",
"toStartOfMonth",
"toStartOfQuarter",
"toStartOfYear",
"toStartOfMinute",
"toStartOfHour",
"toTime",
"toRelativeYearNum"
]
}